<svg width="223" height="29" viewBox="0 0 223 29" fill="none" xmlns="http://www.w3.org/2000/svg">
<path d="M0.199951 12.0001V22.0001C0.199951 25.2001 2.79995 27.7001 5.89995 27.7001V8.1001L0.199951 12.0001Z" fill="url(#paint0_linear_120_2)"/>
<path d="M34.2999 0V27.7H28.5999V0H34.2999Z" fill="url(#paint1_linear_120_2)"/>
<path d="M52.6999 8.2H57.9999V27.8H52.7999L52.4999 25.3C51.8999 26.3 50.9999 27 49.8999 27.4C48.6999 27.9 47.5999 28.1 46.4999 28.2C43.4999 28.2 41.0999 27.3 39.1999 25.5C37.2999 23.7 36.3999 21.2 36.3999 18C36.3999 14.8 37.3999 12.3 39.2999 10.5C41.1999 8.59999 43.6999 7.69998 46.6999 7.79998C47.9999 7.79998 49.0999 7.99999 50.1999 8.49999C51.1999 8.99999 51.9999 9.59999 52.4999 10.5L52.6999 8.2ZM43.5999 14.2C42.5999 15.1 42.0999 16.4 42.0999 18C42.0999 19.6 42.5999 20.8 43.5999 21.8C44.5999 22.7 45.7999 23.2 47.2999 23.2C48.7999 23.2 50.0999 22.7 51.0999 21.7C52.0999 20.7 52.4999 19.5 52.4999 18.2C52.4999 16.7 51.9999 15.4 51.0999 14.4C50.1999 13.4 48.8999 12.8 47.2999 12.8C45.7999 12.8 44.5999 13.2 43.5999 14.2Z" fill="url(#paint2_linear_120_2)"/>
<path d="M74.8 27.8001V17.4001C74.8 14.4001 73.5 12.8001 70.8 12.8001C69.5 12.8001 68.4 13.2001 67.6 14.2001C66.8 15.2001 66.4 16.3001 66.4 17.6001V27.7001H60.8V8.1001H66L66.2 10.6001C67.8 8.6001 69.9 7.6001 72.5 7.6001C77.9 7.6001 80.7 10.8001 80.7 17.3001V27.7001H74.8V27.8001Z" fill="url(#paint3_linear_120_2)"/>
<path d="M104.5 0V27.7H99.4L99 25.2C97.5 27.1 95.3 28.1 92.5 28.1C89.6 28.1 87.3 27.2 85.5 25.3C83.7 23.4 82.8 21 82.8 17.9C82.8 14.8 83.7 12.3 85.5 10.5C87.3 8.7 89.7 7.70001 92.6 7.70001C95.2 7.70001 97.2 8.6 98.8 10.5V0H104.5ZM89.9 14.3C89 15.2 88.6 16.4 88.6 17.9C88.6 19.4 89 20.6 89.9 21.5C90.8 22.5 91.9 22.9 93.4 22.9C94.9 22.9 96.1 22.5 97.1 21.7C98.1 20.9 98.6 19.6 98.6 17.9C98.6 16.3 98.1 15.1 97 14.2C95.9 13.3 94.7 12.9 93.3 12.9C92 12.9 90.8 13.4 89.9 14.3Z" fill="url(#paint4_linear_120_2)"/>
<path d="M107 8.1001V27.7001H112.7V8.1001H107Z" fill="url(#paint5_linear_120_2)"/>
<path d="M128.8 13.6999C127.5 12.6999 125.9 12.2999 124.2 12.2999C123.3 12.2999 122.6 12.3999 122.1 12.6999C121.6 12.9999 121.4 13.3999 121.4 13.8999C121.4 14.9999 122.4 15.5999 124.3 15.5999C125.2 15.5999 126 15.6999 126.7 15.7999C127.4 15.8999 128.2 16.0999 129 16.3999C129.8 16.6999 130.5 16.9999 131 17.4999C131.5 17.8999 132 18.4999 132.3 19.2999C132.7 20.0999 132.9 20.9999 132.9 21.9999C132.9 23.7999 132.2 25.2999 130.8 26.5999C129.4 27.8999 127.2 28.4999 124.3 28.4999C120.8 28.4999 117.8 27.3999 115.1 25.1999L117.6 21.1999C119.5 22.7999 121.8 23.5999 124.4 23.6999C125.2 23.6999 126 23.5999 126.5 23.2999C127.1 22.9999 127.3 22.5999 127.3 22.0999C127.3 20.9999 126.2 20.3999 124 20.3999C123 20.2999 122.1 20.1999 121.2 19.9999C120.3 19.7999 119.4 19.3999 118.6 18.9999C117.8 18.4999 117.1 17.8999 116.6 17.0999C116.1 16.2999 115.8 15.2999 115.8 14.1999C115.8 12.0999 116.6 10.4999 118.3 9.49988C119.9 8.39988 121.9 7.8999 124.3 7.8999C127.3 7.8999 129.8 8.6999 131.8 10.3999L128.8 13.6999Z" fill="url(#paint6_linear_120_2)"/>
<path d="M135 8.1001V27.7001H140.7V8.1001H135Z" fill="url(#paint7_linear_120_2)"/>
<path d="M157.3 27.8001V17.4001C157.3 14.4001 156 12.8001 153.3 12.8001C152 12.8001 150.9 13.2001 150.1 14.2001C149.3 15.2001 148.9 16.3001 148.9 17.6001V27.7001H143.3V8.1001H148.5L148.7 10.6001C150.3 8.6001 152.4 7.6001 155 7.6001C160.5 7.6001 163.2 10.8001 163.2 17.3001V27.7001H157.3V27.8001Z" fill="url(#paint8_linear_120_2)"/>
<path d="M166.1 8.1001V27.7001H171.8V8.1001H166.1Z" fill="url(#paint9_linear_120_2)"/>
<path d="M175.3 25.3004C175.7 25.1004 176.2 25.1004 176.6 25.3004C177 25.5004 177.3 25.9004 177.3 26.5004C177.3 27.0004 177.1 27.4004 176.6 27.6004C176.2 27.8004 175.7 27.8004 175.3 27.6004C174.9 27.4004 174.6 27.0004 174.6 26.4004C174.6 25.9004 174.9 25.5004 175.3 25.3004Z" fill="url(#paint10_linear_120_2)"/>
<path d="M189.6 25.9004C188.4 27.1004 186.9 27.7004 185.1 27.7004C183.3 27.7004 181.8 27.1004 180.6 26.0004C179.4 24.9004 178.8 23.4004 178.8 21.5004C178.8 19.6004 179.4 18.0004 180.6 17.0004C181.8 15.9004 183.3 15.4004 185.1 15.4004C186.8 15.4004 188.2 16.0004 189.4 17.2004L188.1 18.5004C187.3 17.7004 186.3 17.3004 185.1 17.3004C183.9 17.3004 182.9 17.7004 182 18.5004C181.2 19.3004 180.8 20.3003 180.8 21.6003C180.8 22.9003 181.2 24.0004 182 24.8004C182.8 25.6004 183.8 25.9004 185 25.9004C186.3 25.9004 187.3 25.5003 188.1 24.6003L189.6 25.9004Z" fill="url(#paint11_linear_120_2)"/>
<path d="M191.9 17.1003C193.1 15.9003 194.5 15.3003 196.3 15.3003C198.1 15.3003 199.6 15.9003 200.8 17.0003C202 18.2003 202.5 19.7003 202.5 21.5003C202.5 23.3003 201.9 24.8003 200.7 25.9003C199.5 27.1003 198 27.6003 196.2 27.6003C194.4 27.6003 192.9 27.0003 191.8 25.9003C190.6 24.7003 190 23.3003 190 21.5003C190.2 19.7003 190.8 18.2003 191.9 17.1003ZM199.4 18.4003C198.6 17.6003 197.6 17.2003 196.4 17.2003C195.2 17.2003 194.2 17.6003 193.4 18.4003C192.6 19.2003 192.2 20.3003 192.2 21.6003C192.2 22.9003 192.6 23.9003 193.4 24.7003C194.2 25.5003 195.2 25.9003 196.4 25.9003C197.6 25.9003 198.6 25.5003 199.4 24.7003C200.2 23.9003 200.6 22.9003 200.6 21.6003C200.6 20.3003 200.2 19.2003 199.4 18.4003Z" fill="url(#paint12_linear_120_2)"/>
<path d="M204 15.6002H205.8L205.9 17.3002C206.2 16.6002 206.7 16.1002 207.4 15.8002C208 15.5002 208.7 15.3002 209.5 15.3002C210.4 15.3002 211.2 15.5002 211.9 15.9002C212.6 16.3002 213.1 17.0002 213.5 17.9002C213.9 17.0002 214.5 16.4002 215.2 15.9002C215.9 15.5002 216.8 15.2002 217.7 15.2002C219.3 15.2002 220.5 15.7002 221.4 16.6002C222.3 17.6002 222.7 18.9002 222.7 20.5002V27.3002H220.7V20.5002C220.7 19.5002 220.4 18.7002 219.9 18.0002C219.3 17.3002 218.6 17.0002 217.6 17.0002C216.6 17.0002 215.8 17.3002 215.2 18.0002C214.6 18.7002 214.3 19.5002 214.3 20.5002V27.3002H212.3V20.5002C212.3 19.5002 212 18.7002 211.4 18.0002C210.8 17.3002 210 17.0002 209.1 17.0002C208.2 17.0002 207.3 17.3002 206.8 18.0002C206.2 18.7002 205.9 19.5002 205.9 20.5002V27.3002H203.9L204 15.6002Z" fill="url(#paint13_linear_120_2)"/>
<path d="M26.7999 27.8L20.5999 19C19.8999 18.1 19.9999 16.8 20.6999 15.9L26.5999 8.20001H19.5999L15.1999 14C14.9999 14.3 14.6999 14.7 14.5999 15.1V7.79999V0H8.8999V27.7H9.6999C11.1999 27.7 12.4999 27 13.3999 25.9L16.0999 22.4L19.9999 27.8H26.7999V27.8Z" fill="url(#paint14_linear_120_2)"/>
<path opacity="0.5" d="M20.3999 16.2998L16.0999 22.3998L19.4999 27.0998L23.6999 23.2998L20.6999 18.9998C20.5999 18.9998 19.6999 17.7998 20.3999 16.2998Z" fill="url(#paint15_linear_120_2)"/>
<path d="M3.49995 4.20013L0.199951 2.1001V9.50012L3.49995 7.40015C4.69995 6.50015 4.69995 4.90013 3.49995 4.20013Z" fill="url(#paint16_linear_120_2)"/>
<defs>
<linearGradient id="paint0_linear_120_2" x1="0.394251" y1="17.9961" x2="201.118" y2="17.9961" gradientUnits="userSpaceOnUse">
<stop offset="0.0207207" stop-color="#EF4136"/>
<stop offset="0.4279" stop-color="#92278F"/>
<stop offset="0.7306" stop-color="#DA1C5C"/>
<stop offset="1" stop-color="#ED1C24"/>
</linearGradient>
<linearGradient id="paint1_linear_120_2" x1="0.394148" y1="13.9086" x2="201.118" y2="13.9086" gradientUnits="userSpaceOnUse">
<stop offset="0.0207207" stop-color="#EF4136"/>
<stop offset="0.4279" stop-color="#92278F"/>
<stop offset="0.7306" stop-color="#DA1C5C"/>
<stop offset="1" stop-color="#ED1C24"/>
</linearGradient>
<linearGradient id="paint2_linear_120_2" x1="0.394204" y1="17.9755" x2="201.118" y2="17.9755" gradientUnits="userSpaceOnUse">
<stop offset="0.0207207" stop-color="#EF4136"/>
<stop offset="0.4279" stop-color="#92278F"/>
<stop offset="0.7306" stop-color="#DA1C5C"/>
<stop offset="1" stop-color="#ED1C24"/>
</linearGradient>
<linearGradient id="paint3_linear_120_2" x1="0.394366" y1="17.7372" x2="201.118" y2="17.7372" gradientUnits="userSpaceOnUse">
<stop offset="0.0207207" stop-color="#EF4136"/>
<stop offset="0.4279" stop-color="#92278F"/>
<stop offset="0.7306" stop-color="#DA1C5C"/>
<stop offset="1" stop-color="#ED1C24"/>
</linearGradient>
<linearGradient id="paint4_linear_120_2" x1="0.394362" y1="14.0871" x2="201.118" y2="14.0871" gradientUnits="userSpaceOnUse">
<stop offset="0.0207207" stop-color="#EF4136"/>
<stop offset="0.4279" stop-color="#92278F"/>
<stop offset="0.7306" stop-color="#DA1C5C"/>
<stop offset="1" stop-color="#ED1C24"/>
</linearGradient>
<linearGradient id="paint5_linear_120_2" x1="0.394355" y1="17.9565" x2="201.118" y2="17.9565" gradientUnits="userSpaceOnUse">
<stop offset="0.0207207" stop-color="#EF4136"/>
<stop offset="0.4279" stop-color="#92278F"/>
<stop offset="0.7306" stop-color="#DA1C5C"/>
<stop offset="1" stop-color="#ED1C24"/>
</linearGradient>
<linearGradient id="paint6_linear_120_2" x1="0.39448" y1="18.0753" x2="201.118" y2="18.0753" gradientUnits="userSpaceOnUse">
<stop offset="0.0207207" stop-color="#EF4136"/>
<stop offset="0.4279" stop-color="#92278F"/>
<stop offset="0.7306" stop-color="#DA1C5C"/>
<stop offset="1" stop-color="#ED1C24"/>
</linearGradient>
<linearGradient id="paint7_linear_120_2" x1="0.39437" y1="17.9565" x2="201.118" y2="17.9565" gradientUnits="userSpaceOnUse">
<stop offset="0.0207207" stop-color="#EF4136"/>
<stop offset="0.4279" stop-color="#92278F"/>
<stop offset="0.7306" stop-color="#DA1C5C"/>
<stop offset="1" stop-color="#ED1C24"/>
</linearGradient>
<linearGradient id="paint8_linear_120_2" x1="0.394147" y1="17.7372" x2="201.118" y2="17.7372" gradientUnits="userSpaceOnUse">
<stop offset="0.0207207" stop-color="#EF4136"/>
<stop offset="0.4279" stop-color="#92278F"/>
<stop offset="0.7306" stop-color="#DA1C5C"/>
<stop offset="1" stop-color="#ED1C24"/>
</linearGradient>
<linearGradient id="paint9_linear_120_2" x1="0.394481" y1="17.9565" x2="201.118" y2="17.9565" gradientUnits="userSpaceOnUse">
<stop offset="0.0207207" stop-color="#EF4136"/>
<stop offset="0.4279" stop-color="#92278F"/>
<stop offset="0.7306" stop-color="#DA1C5C"/>
<stop offset="1" stop-color="#ED1C24"/>
</linearGradient>
<linearGradient id="paint10_linear_120_2" x1="0.394598" y1="26.4568" x2="201.118" y2="26.4568" gradientUnits="userSpaceOnUse">
<stop offset="0.0207207" stop-color="#EF4136"/>
<stop offset="0.4279" stop-color="#92278F"/>
<stop offset="0.7306" stop-color="#DA1C5C"/>
<stop offset="1" stop-color="#ED1C24"/>
</linearGradient>
<linearGradient id="paint11_linear_120_2" x1="0.394541" y1="21.5572" x2="201.119" y2="21.5572" gradientUnits="userSpaceOnUse">
<stop offset="0.0207207" stop-color="#EF4136"/>
<stop offset="0.4279" stop-color="#92278F"/>
<stop offset="0.7306" stop-color="#DA1C5C"/>
<stop offset="1" stop-color="#ED1C24"/>
</linearGradient>
<linearGradient id="paint12_linear_120_2" x1="0.394293" y1="21.5328" x2="201.118" y2="21.5328" gradientUnits="userSpaceOnUse">
<stop offset="0.0207207" stop-color="#EF4136"/>
<stop offset="0.4279" stop-color="#92278F"/>
<stop offset="0.7306" stop-color="#DA1C5C"/>
<stop offset="1" stop-color="#ED1C24"/>
</linearGradient>
<linearGradient id="paint13_linear_120_2" x1="0.394162" y1="21.4602" x2="201.118" y2="21.4602" gradientUnits="userSpaceOnUse">
<stop offset="0.0207207" stop-color="#EF4136"/>
<stop offset="0.4279" stop-color="#92278F"/>
<stop offset="0.7306" stop-color="#DA1C5C"/>
<stop offset="1" stop-color="#ED1C24"/>
</linearGradient>
<linearGradient id="paint14_linear_120_2" x1="0.394202" y1="13.9086" x2="201.118" y2="13.9086" gradientUnits="userSpaceOnUse">
<stop offset="0.0207207" stop-color="#EF4136"/>
<stop offset="0.4279" stop-color="#92278F"/>
<stop offset="0.7306" stop-color="#DA1C5C"/>
<stop offset="1" stop-color="#ED1C24"/>
</linearGradient>
<linearGradient id="paint15_linear_120_2" x1="22.1031" y1="25.8857" x2="18.3595" y2="19.6152" gradientUnits="userSpaceOnUse">
<stop stop-color="white" stop-opacity="0"/>
<stop offset="1"/>
</linearGradient>
<linearGradient id="paint16_linear_120_2" x1="0.370767" y1="5.71556" x2="201.112" y2="5.71556" gradientUnits="userSpaceOnUse">
<stop stop-color="#EF4136"/>
<stop offset="0.0207207" stop-color="#EF4136"/>
<stop offset="0.4279" stop-color="#92278F"/>
<stop offset="0.7306" stop-color="#DA1C5C"/>
<stop offset="1" stop-color="#ED1C24"/>
</linearGradient>
</defs>
</svg>
