<svg width="37" height="36" viewBox="0 0 37 36" fill="none" xmlns="http://www.w3.org/2000/svg">
<path d="M18.5 35.4C28.2755 35.4 36.2 27.4754 36.2 17.7C36.2 7.92456 28.2755 0 18.5 0C8.72461 0 0.800049 7.92456 0.800049 17.7C0.800049 27.4754 8.72461 35.4 18.5 35.4Z" fill="#34314B"/>
<path d="M24 11C23.3 11 22.8 11.5 22.8 12.2C22.8 12.9 23.3 13.4 24 13.4C24.7 13.4 25.2 12.9 25.2 12.2C25.2 11.5 24.7 11 24 11Z" fill="white"/>
<path d="M18.6001 12.6001C15.8001 12.6001 13.5001 14.9001 13.5001 17.7001C13.5001 20.5001 15.8001 22.8001 18.6001 22.8001C21.4001 22.8001 23.7001 20.5001 23.7001 17.7001C23.7001 14.8001 21.4001 12.6001 18.6001 12.6001ZM18.6001 20.9001C16.8001 20.9001 15.3001 19.4001 15.3001 17.6001C15.3001 15.8001 16.8001 14.3001 18.6001 14.3001C20.4001 14.3001 21.9001 15.8001 21.9001 17.6001C21.8001 19.5001 20.4001 20.9001 18.6001 20.9001Z" fill="white"/>
<path d="M22.6001 28H14.3001C10.9001 28 8.1001 25.2 8.1001 21.8V13.5C8.1001 10.1 10.9001 7.30005 14.3001 7.30005H22.6001C26.0001 7.30005 28.8001 10.1 28.8001 13.5V21.8C28.9001 25.2 26.1001 28 22.6001 28ZM14.4001 9.20005C12.0001 9.20005 10.1001 11.1 10.1001 13.5V21.8C10.1001 24.2 12.0001 26.1 14.4001 26.1H22.7001C25.1001 26.1 27.0001 24.2 27.0001 21.8V13.5C27.0001 11.1 25.1001 9.20005 22.7001 9.20005H14.4001Z" fill="white"/>
</svg>
