<svg width="23" height="23" viewBox="0 0 23 23" fill="none" xmlns="http://www.w3.org/2000/svg">
<path d="M11.5 0C11.1271 0 10.8262 0.300977 10.8262 0.673828V5.0043C10.8262 5.37715 11.1271 5.67812 11.5 5.67812C11.8729 5.67812 12.1738 5.37715 12.1738 5.0043V0.673828C12.1738 0.300977 11.8729 0 11.5 0Z" fill="white"/>
<path d="M11.5 17.3218C11.1271 17.3218 10.8262 17.6228 10.8262 17.9957V22.3261C10.8262 22.699 11.1271 22.9999 11.5 22.9999C11.8729 22.9999 12.1738 22.699 12.1738 22.3261V17.9957C12.1738 17.6228 11.8729 17.3218 11.5 17.3218Z" fill="#645880"/>
<path d="M8.83598 5.5389L6.67074 1.78792C6.48656 1.46448 6.07328 1.35667 5.74984 1.54085C5.42641 1.72503 5.31859 2.13831 5.50277 2.46175L7.66801 6.21272C7.79379 6.42835 8.0184 6.54964 8.25199 6.54964C8.3643 6.54964 8.4811 6.52268 8.58891 6.45979C8.91235 6.27112 9.02016 5.85784 8.83598 5.5389Z" fill="#403C5C"/>
<path d="M17.4971 20.5383L15.3319 16.7873C15.1477 16.4639 14.7344 16.3561 14.411 16.5403C14.0875 16.7244 13.9797 17.1377 14.1639 17.4612L16.3291 21.2121C16.4549 21.4278 16.6795 21.5491 16.9131 21.5491C17.0254 21.5491 17.1422 21.5221 17.25 21.4592C17.5735 21.275 17.6813 20.8618 17.4971 20.5383Z" fill="#63587C"/>
<path d="M6.21274 7.66819L2.46176 5.50295C2.13832 5.31877 1.72953 5.42658 1.54086 5.75002C1.35668 6.07346 1.46449 6.48225 1.78793 6.67092L5.53891 8.83616C5.64672 8.89905 5.75902 8.926 5.87582 8.926C6.10942 8.926 6.33402 8.80471 6.45981 8.58909C6.64399 8.26565 6.53168 7.85686 6.21274 7.66819Z" fill="#45405F"/>
<path d="M21.2118 16.3291L17.4608 14.1639C17.1373 13.9797 16.7286 14.0875 16.5399 14.4109C16.3557 14.7344 16.4635 15.1432 16.787 15.3318L20.5379 17.4971C20.6457 17.56 20.758 17.5869 20.8748 17.5869C21.1084 17.5869 21.333 17.4656 21.4588 17.25C21.643 16.9266 21.5352 16.5178 21.2118 16.3291Z" fill="#7D7296"/>
<path d="M5.0043 10.8262H0.673828C0.300977 10.8262 0 11.1271 0 11.5C0 11.8729 0.300977 12.1738 0.673828 12.1738H5.0043C5.37715 12.1738 5.67812 11.8729 5.67812 11.5C5.67812 11.1271 5.37715 10.8262 5.0043 10.8262Z" fill="#4B4760"/>
<path d="M22.3256 10.8262H17.9951C17.6223 10.8262 17.3213 11.1271 17.3213 11.5C17.3213 11.8729 17.6223 12.1738 17.9951 12.1738H22.3256C22.6984 12.1738 22.9994 11.8729 22.9994 11.5C22.9994 11.1271 22.6984 10.8262 22.3256 10.8262Z" fill="#9C92B4"/>
<path d="M6.45981 14.4109C6.27563 14.0875 5.86234 13.9797 5.53891 14.1639L1.78793 16.3291C1.46449 16.5133 1.35668 16.9266 1.54086 17.25C1.66664 17.4656 1.89125 17.5869 2.12484 17.5869C2.23715 17.5869 2.35395 17.56 2.46176 17.4971L6.21274 15.3318C6.53168 15.1432 6.64399 14.7344 6.45981 14.4109Z" fill="#555170"/>
<path d="M21.4588 5.75002C21.2747 5.42658 20.8614 5.31877 20.5379 5.50295L16.787 7.66819C16.4635 7.85237 16.3557 8.26565 16.5399 8.58909C16.6657 8.80471 16.8903 8.926 17.1239 8.926C17.2362 8.926 17.353 8.89905 17.4608 8.83616L21.2118 6.67092C21.5352 6.48674 21.643 6.07346 21.4588 5.75002Z" fill="#BBAFD9"/>
<path d="M8.58891 16.5403C8.26547 16.3561 7.85668 16.4639 7.66801 16.7873L5.50277 20.5383C5.31859 20.8618 5.42641 21.2705 5.74984 21.4592C5.85766 21.5221 5.96996 21.5491 6.08676 21.5491C6.32035 21.5491 6.54496 21.4278 6.67074 21.2121L8.83598 17.4612C9.02016 17.1422 8.91235 16.7289 8.58891 16.5403Z" fill="#5C5777"/>
<path d="M17.25 1.54085C16.9266 1.35667 16.5178 1.46448 16.3291 1.78792L14.1639 5.5389C13.9797 5.86233 14.0875 6.27112 14.411 6.45979C14.5188 6.52268 14.6311 6.54964 14.7479 6.54964C14.9815 6.54964 15.2061 6.42835 15.3319 6.21272L17.4971 2.46175C17.6813 2.13831 17.5735 1.72503 17.25 1.54085Z" fill="#D8D1E9"/>
</svg>
