<svg width="13" height="21" viewBox="0 0 13 21" fill="none" xmlns="http://www.w3.org/2000/svg">
<path fill-rule="evenodd" clip-rule="evenodd" d="M0 20.7846L12.1992 11.0324L13 10.3923L12.1992 9.75218L0 0V1.28026L11.3985 10.3923L0 19.5044V20.7846Z" fill="#414141"/>
</svg>
