<svg width="36" height="36" viewBox="0 0 36 36" fill="none" xmlns="http://www.w3.org/2000/svg">
<path d="M18.1 35.4C27.8755 35.4 35.8 27.4754 35.8 17.7C35.8 7.92456 27.8755 0 18.1 0C8.32458 0 0.400024 7.92456 0.400024 17.7C0.400024 27.4754 8.32458 35.4 18.1 35.4Z" fill="#34314B"/>
<path d="M27.9001 11.6C27.3001 11.9 26.6001 12 25.9001 12.2C26.2001 12.1 26.7001 11.6 26.9001 11.3C27.2001 10.9 27.4 10.6 27.5 10.1V9.99995H27.4001C26.7001 10.4 25.9 10.7 25.1 10.9C25 10.9 25.0001 10.9 24.9001 10.9C24.8001 10.8 24.8 10.8 24.7 10.7C24.4 10.4 24 10.2 23.6 9.99995C23.1 9.79995 22.5001 9.69995 21.9001 9.69995C21.3001 9.69995 20.8001 9.89995 20.3001 10.2C19.8001 10.5 19.3 10.8 19 11.3C18.6 11.8 18.4 12.3 18.2 12.9C18.1 13.5 18.1 14 18.2 14.6C18.2 14.7 18.2 14.7 18.1 14.7C14.9 14.2 12.3001 13.1 10.2001 10.7C10.1001 10.6 10.1 10.6 10 10.7C9.10005 12.1 9.50005 14.4 10.7001 15.5C10.9001 15.6 11.0001 15.8 11.2001 15.9C11.1001 15.9 10.4001 15.8 9.70005 15.5C9.60005 15.4 9.60005 15.5 9.60005 15.6C9.60005 15.8 9.60005 15.9 9.60005 16.1C9.80005 17.5 10.8 18.8 12.1 19.3C12.3 19.4 12.4 19.4 12.6 19.5C12.3 19.6 12 19.6 11.1 19.5C11 19.5 10.9 19.5 11 19.6C11.7 21.4 13.1 21.9 14.2 22.2C14.3 22.2 14.5 22.2 14.6 22.3C14.2 22.8 13.0001 23.2 12.4001 23.4C11.4001 23.8 10.2 23.9 9.10005 23.8C8.90005 23.8 8.90005 23.8 8.80005 23.8C8.80005 23.8 8.80005 23.9 8.90005 23.9C9.10005 24 9.40005 24.2 9.60005 24.3C10.3 24.7 11 25 11.8 25.2C15.7 26.3 20.2 25.5 23.1 22.6C25.4 20.3 26.2 17.1 26.2 13.9C26.2 13.8 26.3001 13.7 26.4001 13.6C27.0001 13.1 27.5001 12.6 27.9001 12C27.9001 11.8 27.9001 11.7 27.9001 11.6Z" fill="white"/>
</svg>
